<?xml version="1.0" encoding="UTF-8"?>
<session version="1.0">
<refactoring comment="Copy element &apos;GetCelulas.java&apos; to &apos;br.com.celula.integracao.GetCelulas.java&apos;&#x0D;&#x0A;- Original project: &apos;celula&apos;&#x0D;&#x0A;- Destination element: &apos;br.com.celula.integracao.GetCelulas.java&apos;&#x0D;&#x0A;- Original element: &apos;br.com.celula.integracao.GetCelulas.java&apos;" description="Copy compilation unit" destination="/src&lt;br.com.celula.integracao{GetCelulas.java" element1="/src&lt;br.com.celula.integracao{GetCelulas.java" files="0" flags="589830" folders="0" id="org.eclipse.jdt.ui.copy" policy="org.eclipse.jdt.ui.copyResources" stamp="1405176171251" units="1" version="1.0"/>
</session>