<?xml version="1.0" encoding="UTF-8"?>
<session version="1.0">
<refactoring comment="Delete resource &apos;TesteProjetoX&apos;" deleteContents="true" description="Delete resource &apos;TesteProjetoX&apos;" element1="/TesteProjetoX" flags="7" id="org.eclipse.ltk.core.refactoring.delete.resources" resources="1" stamp="1406580791811"/>
</session>